\select@language {italian}
\select@language {italian}
\contentsline {section}{\numberline {0.1}Scopo dell'applicazione}{2}
\contentsline {paragraph}{}{2}
\contentsline {section}{\numberline {0.2}Funzionalit\IeC {\`a} previste}{2}
\contentsline {paragraph}{}{2}
\contentsline {section}{\numberline {0.3}Caratteristiche e requisiti}{2}
\contentsline {paragraph}{}{2}
\contentsline {section}{\numberline {0.4}Progettazione e scelte implementative}{2}
\contentsline {subsection}{\numberline {0.4.1}Struttura}{2}
\contentsline {paragraph}{}{2}
\contentsline {subsection}{\numberline {0.4.2}MainActivity}{3}
\contentsline {paragraph}{}{3}
\contentsline {paragraph}{}{3}
\contentsline {paragraph}{}{3}
\contentsline {subsection}{\numberline {0.4.3}Frag\_Principale}{3}
\contentsline {paragraph}{}{3}
\contentsline {paragraph}{}{4}
\contentsline {subsection}{\numberline {0.4.4}DBhelper}{4}
\contentsline {paragraph}{}{4}
\contentsline {subsection}{\numberline {0.4.5}Json\_Standard}{4}
\contentsline {paragraph}{}{4}
\contentsline {subsection}{\numberline {0.4.6}Ricetta}{4}
\contentsline {paragraph}{}{4}
\contentsline {subsection}{\numberline {0.4.7}Frag\_Lista}{4}
\contentsline {paragraph}{}{4}
\contentsline {paragraph}{}{5}
\contentsline {subsection}{\numberline {0.4.8}Food\_Card}{5}
\contentsline {paragraph}{}{5}
\contentsline {subsection}{\numberline {0.4.9}food\_adapter}{5}
\contentsline {paragraph}{}{5}
\contentsline {subsection}{\numberline {0.4.10}Frag\_Dettagli}{5}
\contentsline {paragraph}{}{5}
\contentsline {paragraph}{}{6}
\contentsline {subsection}{\numberline {0.4.11}Frag\_Nuova\_Ricetta}{6}
\contentsline {paragraph}{}{6}
\contentsline {section}{\numberline {0.5}Idee per estensioni e conclusioni}{7}
\contentsline {paragraph}{}{7}
\contentsline {paragraph}{}{7}
\contentsline {paragraph}{Fonti}{7}
