\relax 
\select@language{italian}
\@writefile{toc}{\select@language{italian}}
\@writefile{lof}{\select@language{italian}}
\@writefile{lot}{\select@language{italian}}
\select@language{italian}
\@writefile{toc}{\select@language{italian}}
\@writefile{lof}{\select@language{italian}}
\@writefile{lot}{\select@language{italian}}
\@writefile{toc}{\contentsline {section}{\numberline {0.1}Scopo dell'applicazione}{2}}
\@writefile{toc}{\contentsline {paragraph}{}{2}}
\@writefile{toc}{\contentsline {section}{\numberline {0.2}Funzionalit\IeC {\`a} previste}{2}}
\@writefile{toc}{\contentsline {paragraph}{}{2}}
\@writefile{toc}{\contentsline {section}{\numberline {0.3}Caratteristiche e requisiti}{2}}
\@writefile{toc}{\contentsline {paragraph}{}{2}}
\@writefile{toc}{\contentsline {section}{\numberline {0.4}Progettazione e scelte implementative}{2}}
\@writefile{toc}{\contentsline {subsection}{\numberline {0.4.1}Struttura}{2}}
\@writefile{toc}{\contentsline {paragraph}{}{2}}
\@writefile{toc}{\contentsline {subsection}{\numberline {0.4.2}MainActivity}{3}}
\@writefile{toc}{\contentsline {paragraph}{}{3}}
\@writefile{toc}{\contentsline {paragraph}{}{3}}
\@writefile{toc}{\contentsline {paragraph}{}{3}}
\@writefile{toc}{\contentsline {subsection}{\numberline {0.4.3}Frag\_Principale}{3}}
\@writefile{toc}{\contentsline {paragraph}{}{3}}
\@writefile{toc}{\contentsline {paragraph}{}{4}}
\@writefile{lof}{\contentsline {figure}{\numberline {1}{\ignorespaces Frag\_Principale }}{4}}
\newlabel{overflow}{{1}{4}}
\@writefile{toc}{\contentsline {subsection}{\numberline {0.4.4}DBhelper}{4}}
\@writefile{toc}{\contentsline {paragraph}{}{4}}
\@writefile{toc}{\contentsline {subsection}{\numberline {0.4.5}Json\_Standard}{4}}
\@writefile{toc}{\contentsline {paragraph}{}{4}}
\@writefile{toc}{\contentsline {subsection}{\numberline {0.4.6}Ricetta}{4}}
\@writefile{toc}{\contentsline {paragraph}{}{4}}
\@writefile{toc}{\contentsline {subsection}{\numberline {0.4.7}Frag\_Lista}{4}}
\@writefile{toc}{\contentsline {paragraph}{}{4}}
\@writefile{toc}{\contentsline {paragraph}{}{5}}
\@writefile{lof}{\contentsline {figure}{\numberline {2}{\ignorespaces Frag\_Lista }}{5}}
\newlabel{overflow}{{2}{5}}
\@writefile{toc}{\contentsline {subsection}{\numberline {0.4.8}Food\_Card}{5}}
\@writefile{toc}{\contentsline {paragraph}{}{5}}
\@writefile{toc}{\contentsline {subsection}{\numberline {0.4.9}food\_adapter}{5}}
\@writefile{toc}{\contentsline {paragraph}{}{5}}
\@writefile{toc}{\contentsline {subsection}{\numberline {0.4.10}Frag\_Dettagli}{5}}
\@writefile{toc}{\contentsline {paragraph}{}{5}}
\@writefile{toc}{\contentsline {paragraph}{}{6}}
\@writefile{lof}{\contentsline {figure}{\numberline {3}{\ignorespaces Frag\_Dettagli }}{6}}
\newlabel{overflow}{{3}{6}}
\@writefile{toc}{\contentsline {subsection}{\numberline {0.4.11}Frag\_Nuova\_Ricetta}{6}}
\@writefile{toc}{\contentsline {paragraph}{}{6}}
\@writefile{lof}{\contentsline {figure}{\numberline {4}{\ignorespaces Frag\_Nuova\_Ricetta }}{6}}
\newlabel{overflow}{{4}{6}}
\@writefile{toc}{\contentsline {section}{\numberline {0.5}Idee per estensioni e conclusioni}{7}}
\@writefile{toc}{\contentsline {paragraph}{}{7}}
\@writefile{toc}{\contentsline {paragraph}{}{7}}
\@writefile{toc}{\contentsline {paragraph}{Fonti}{7}}
